{
    "KPackageStructure": "Plasma/Applet",
    "KPlugin": {
        "Authors": [
            {
                "Email": "hein@kde.org",
                "Name": "Eike Hein",
                "Name[ar]": "Eike Hein",
                "Name[az]": "Eike Hein",
                "Name[bg]": "Eike Hein",
                "Name[ca@valencia]": "Eike Hein",
                "Name[ca]": "Eike Hein",
                "Name[cs]": "Eike Hein",
                "Name[de]": "Eike Hein",
                "Name[en_GB]": "Eike Hein",
                "Name[eo]": "Eike Hein",
                "Name[es]": "Eike Hein",
                "Name[eu]": "Eike Hein",
                "Name[fi]": "Eike Hein",
                "Name[fr]": "Eike Hein",
                "Name[gl]": "Eike Hein",
                "Name[he]": "אייק היין",
                "Name[hu]": "Eike Hein",
                "Name[ia]": "Eike Hein",
                "Name[id]": "Eike Hein",
                "Name[is]": "Eike Hein",
                "Name[it]": "Eike Hein",
                "Name[ja]": "Eike Hein",
                "Name[ka]": "აიკე ჰაინი",
                "Name[ko]": "Eike Hein",
                "Name[lt]": "Eike Hein",
                "Name[lv]": "Eike Hein",
                "Name[nl]": "Eike Hein",
                "Name[nn]": "Eike Hein",
                "Name[pl]": "Eike Hein",
                "Name[pt]": "Eike Hein",
                "Name[pt_BR]": "Eike Hein",
                "Name[ro]": "Eike Hein",
                "Name[ru]": "Eike Hein",
                "Name[sk]": "Eike Hein",
                "Name[sl]": "Eike Hein",
                "Name[sv]": "Eike Hein",
                "Name[tr]": "Eike Hein",
                "Name[uk]": "Eike Hein",
                "Name[vi]": "Eike Hein",
                "Name[x-test]": "xxEike Heinxx",
                "Name[zh_CN]": "Eike Hein",
                "Name[zh_TW]": "Eike Hein"
            }
        ],
        "Category": "Application Launchers",
        "Description": "A fullscreen application launcher",
        "Description[ar]": "مطلق تطبيقات ملء الشاشة ",
        "Description[az]": "Tam ekran tətbiq başladıcısı",
        "Description[bg]": "Стартер на приложения на цял екран",
        "Description[ca@valencia]": "Un iniciador d'aplicacions a pantalla completa",
        "Description[ca]": "Un llançador d'aplicacions a pantalla completa",
        "Description[cs]": "Spouštěč aplikací na celou obrazovku",
        "Description[de]": "Anwendungsstarter im Vollbildmodus",
        "Description[en_GB]": "A fullscreen application launcher",
        "Description[eo]": "Plenekrana aplikaĵlanĉilo",
        "Description[es]": "Lanzador de aplicaciones a pantalla completa",
        "Description[eu]": "Pantaila-osoko aplikazio abiarazle bat",
        "Description[fi]": "Koko näytön sovelluskäynnistin",
        "Description[fr]": "Un lanceur d'applications en plein écran",
        "Description[gl]": "Un iniciador de aplicacións a pantalla completa",
        "Description[he]": "משגר יישומים במסך מלא",
        "Description[hu]": "Teljes képernyős alkalmazásindító",
        "Description[ia]": "Un lanceator de application a schermo plen",
        "Description[id]": "Sebuah peluncur aplikasi layar penuh",
        "Description[is]": "Forritaræsir sem fyllir skjáinn",
        "Description[it]": "Un lanciatore di applicazioni a schermo intero",
        "Description[ja]": "フルスクリーンのアプリケーションランチャー",
        "Description[ka]": "აპლიკაციების მთელ ეკრანზე გამშვები",
        "Description[ko]": "전체 화면 앱 실행기",
        "Description[lt]": "Viso ekrano programų paleidyklė",
        "Description[lv]": "Pilnekrāna programmu palaidējs",
        "Description[nl]": "Een programmastarter met volledig scherm",
        "Description[nn]": "Fullskjerms programstartar",
        "Description[pl]": "Pełnoekranowe menu programów",
        "Description[pt]": "Um lançador de aplicações em ecrã completo",
        "Description[pt_BR]": "Lançador de aplicativos em tela inteira",
        "Description[ro]": "Lansator de aplicații pe tot ecranul",
        "Description[ru]": "Полноэкранное меню запуска приложений",
        "Description[sk]": "Spúšťač aplikácií na celú obrazovku",
        "Description[sl]": "Celozaslonski zaganjalnik aplikacij",
        "Description[sv]": "Ett fullskärmsverktyg för programstart",
        "Description[tr]": "Tam ekran uygulama başlatıcısı",
        "Description[uk]": "Повноекранний засіб запуску програм",
        "Description[vi]": "Trình khởi chạy ứng dụng, với kích cỡ toàn màn hình",
        "Description[x-test]": "xxA fullscreen application launcherxx",
        "Description[zh_CN]": "全屏应用程序启动器",
        "Description[zh_TW]": "一個全螢幕應用程式啟動器",
        "FormFactors": [
            "desktop"
        ],
        "Icon": "start-here-kde",
        "Id": "org.kde.plasma.kickerdash",
        "License": "GPL-2.0+",
        "Name": "Application Dashboard",
        "Name[ar]": "لوحة معلومات التطبيق",
        "Name[az]": "Tətbiq tablosu",
        "Name[bg]": "Панел на приложения",
        "Name[ca@valencia]": "Tauler d'aplicacions",
        "Name[ca]": "Tauler d'aplicacions",
        "Name[cs]": "Pracovní plocha aplikace",
        "Name[de]": "Anwendungsübersicht",
        "Name[en_GB]": "Application Dashboard",
        "Name[eo]": "Aplika Instrumentpanelo",
        "Name[es]": "Tablero de aplicaciones",
        "Name[eu]": "Aplikazioen Aginte-mahaia",
        "Name[fi]": "Sovelluskojelauta",
        "Name[fr]": "Tableau de bord des applications",
        "Name[gl]": "Cadro de control de aplicacións",
        "Name[he]": "לוח מחווני יישומים",
        "Name[hu]": "Alkalmazás irányítópult",
        "Name[ia]": "Pannello de instrumentos de Application",
        "Name[id]": "Dasbor Aplikasi",
        "Name[is]": "Hugbúnaðarborð",
        "Name[it]": "Cruscotto applicazioni",
        "Name[ja]": "アプリケーションダッシュボード",
        "Name[ka]": "აპლიკაციის სამუშაო დაფა",
        "Name[ko]": "앱 대시보드",
        "Name[lt]": "Programų skydelis",
        "Name[lv]": "Programmu panelis",
        "Name[nl]": "Toepassingendashboard",
        "Name[nn]": "Program­kontrollpult",
        "Name[pl]": "Tablica programów",
        "Name[pt]": "Quadro da Aplicação",
        "Name[pt_BR]": "Painel de aplicativos",
        "Name[ro]": "Panou de bord pentru aplicații",
        "Name[ru]": "Доска приложений",
        "Name[sk]": "Hlavný panel aplikácií",
        "Name[sl]": "Application Dashboard",
        "Name[sv]": "Instrumentpanel för program",
        "Name[tr]": "Uygulama Gösterge Tablosu",
        "Name[uk]": "Панель приладів програм",
        "Name[vi]": "Bảng điều khiển ứng dụng",
        "Name[x-test]": "xxApplication Dashboardxx",
        "Name[zh_CN]": "应用程序面板",
        "Name[zh_TW]": "應用程式儀表板",
        "Website": "https://kde.org/plasma-desktop"
    },
    "X-Plasma-API-Minimum-Version": "6.0",
    "X-Plasma-Provides": [
        "org.kde.plasma.launchermenu"
    ],
    "X-Plasma-RootPath": "org.kde.plasma.kicker"
}
